<svg width="23" height="26" viewBox="0 0 23 26" fill="none" xmlns="http://www.w3.org/2000/svg">
<path d="M1 8.23901V17.761C0.999772 18.1958 1.11408 18.6229 1.33141 18.9995C1.54874 19.376 1.86143 19.6887 2.238 19.906L10.485 24.668C10.8616 24.8853 11.2887 24.9997 11.7235 24.9997C12.1583 24.9997 12.5854 24.8853 12.962 24.668L21.209 19.906C21.5856 19.6887 21.8983 19.376 22.1156 18.9995C22.3329 18.6229 22.4472 18.1958 22.447 17.761V8.23901C22.4472 7.80423 22.3329 7.37707 22.1156 7.00052C21.8983 6.62396 21.5856 6.3113 21.209 6.09401L12.962 1.33201C12.5854 1.1147 12.1583 1.00031 11.7235 1.00031C11.2887 1.00031 10.8616 1.1147 10.485 1.33201L2.238 6.09401C1.86143 6.3113 1.54874 6.62396 1.33141 7.00052C1.11408 7.37707 0.999772 7.80423 1 8.23901V8.23901Z" stroke="#8998AC" stroke-miterlimit="10" stroke-linecap="round" stroke-linejoin="round"/>
</svg>
