<svg width="24" height="22" viewBox="0 0 24 22" fill="none" xmlns="http://www.w3.org/2000/svg">
<path d="M0.846985 1.34698H15.263" stroke="#39475B" stroke-miterlimit="10" stroke-linecap="round" stroke-linejoin="round"/>
<path d="M0.846985 7.93597H23.435" stroke="#39475B" stroke-miterlimit="10" stroke-linecap="round" stroke-linejoin="round"/>
<path d="M0.846985 14.523H15.263" stroke="#39475B" stroke-miterlimit="10" stroke-linecap="round" stroke-linejoin="round"/>
<path d="M0.846985 21.112H23.435" stroke="#39475B" stroke-miterlimit="10" stroke-linecap="round" stroke-linejoin="round"/>
</svg>
