<svg width="20" height="25" viewBox="0 0 20 25" fill="none" xmlns="http://www.w3.org/2000/svg">
<path d="M17.349 20.763H2.258C2.09276 20.7631 1.92912 20.7307 1.77643 20.6675C1.62374 20.6043 1.48501 20.5117 1.36817 20.3948C1.25132 20.278 1.15867 20.1393 1.09549 19.9866C1.03232 19.8339 0.999869 19.6702 1 19.505V13.155C1 10.8202 1.92751 8.58096 3.57849 6.92999C5.22946 5.27901 7.46867 4.3515 9.8035 4.3515C12.1383 4.3515 14.3775 5.27901 16.0285 6.92999C17.6795 8.58096 18.607 10.8202 18.607 13.155V19.505C18.6071 19.6702 18.5747 19.8339 18.5115 19.9866C18.4483 20.1393 18.3557 20.278 18.2388 20.3948C18.122 20.5117 17.9833 20.6043 17.8306 20.6675C17.6779 20.7307 17.5142 20.7631 17.349 20.763V20.763Z" stroke="#39475B" stroke-miterlimit="10" stroke-linecap="round" stroke-linejoin="round"/>
<path d="M11.882 2.515C11.882 3.01242 11.7345 3.49867 11.4581 3.91226C11.1818 4.32585 10.789 4.6482 10.3294 4.83856C9.86988 5.02891 9.3642 5.07872 8.87634 4.98168C8.38848 4.88463 7.94035 4.6451 7.58862 4.29337C7.23689 3.94164 6.99736 3.49351 6.90032 3.00565C6.80327 2.51779 6.85308 2.01211 7.04343 1.55255C7.23379 1.09299 7.55614 0.700206 7.96973 0.423854C8.38332 0.147502 8.86957 0 9.36699 0C10.0339 0.000265026 10.6735 0.265323 11.1451 0.736919C11.6167 1.20852 11.8817 1.84806 11.882 2.515Z" fill="#39475B"/>
<path d="M11.53 20.81C11.6323 21.075 11.6836 21.357 11.681 21.641C11.6874 21.9489 11.6323 22.2549 11.5189 22.5412C11.4055 22.8275 11.2362 23.0883 11.0207 23.3082C10.8052 23.5282 10.548 23.703 10.2642 23.8223C9.98028 23.9416 9.67545 24.0031 9.36753 24.0031C9.0596 24.0031 8.75477 23.9416 8.4709 23.8223C8.18703 23.703 7.92983 23.5282 7.71436 23.3082C7.4989 23.0883 7.32951 22.8275 7.21612 22.5412C7.10274 22.2549 7.04763 21.9489 7.05403 21.641C7.05171 21.3571 7.10258 21.0752 7.20403 20.81" stroke="#39475B" stroke-miterlimit="10" stroke-linecap="round" stroke-linejoin="round"/>
<path d="M14.066 13.065C16.4712 13.065 18.421 11.1152 18.421 8.70998C18.421 6.30478 16.4712 4.35498 14.066 4.35498C11.6608 4.35498 9.711 6.30478 9.711 8.70998C9.711 11.1152 11.6608 13.065 14.066 13.065Z" fill="#B620E0"/>
<path d="M14.066 13.565C16.7473 13.565 18.921 11.3913 18.921 8.70998C18.921 6.02864 16.7473 3.85498 14.066 3.85498C11.3847 3.85498 9.211 6.02864 9.211 8.70998C9.211 11.3913 11.3847 13.565 14.066 13.565Z" stroke="white" stroke-miterlimit="10"/>
</svg>
